Mini-Project 01: Netflix Top 10 Analysis – STA 9750 Submission Material
…
Out of all 515 English Language TV Shows on Netflix, Stranger Things ranks as the fifth highest-charting TV show in the Top 10! Since Wednesday Season 1 was released in 2022, we have more complete data on its cumulative weeks in the Top 10, to give context for comparison.

Countries Stranger Things Charted in

COUNTRY_TOP_10 |>
  filter(show_title == 'Stranger Things') |>
  group_by(country_name) |>
  summarise(total_weeks_in_top_10 = max(cumulative_weeks_in_top_10))|>
  arrange(desc(total_weeks_in_top_10)) 

# A tibble: 93 × 2
   country_name   total_weeks_in_top_10
   <chr>                          <dbl>
 1 Ukraine                           24
 2 Pakistan                          23
 3 India                             21
 4 Serbia                            21
 5 Czech Republic                    18
 6 Bangladesh                        17
 7 Belgium                           17
 8 Bulgaria                          17
 9 Croatia                           17
10 Hungary                           17
# ℹ 83 more rows
…
KPOP Demon Hunter premiered on Netflix on June 20, 2025. In its first week, it debuted at #2 on the global charts and has consistently remained in the top two ever since. Now, let’s take a step back and explore how KDH has performed across different countries.

Countries KDH Charted in

COUNTRY_TOP_10 |>
  filter(show_title == 'KPop Demon Hunters')|>
  group_by(country_name)|>
  summarise(total_weeks_kdp = max(cumulative_weeks_in_top_10))|>
  arrange(desc(total_weeks_kdp))

# A tibble: 93 × 2
   country_name total_weeks_kdp
   <chr>                  <dbl>
 1 Argentina                 14
 2 Australia                 14
 3 Austria                   14
 4 Bahamas                   14
 5 Bahrain                   14
 6 Bangladesh                14
 7 Bolivia                   14
 8 Brazil                    14
 9 Bulgaria                  14
10 Canada                    14
# ℹ 83 more rows

COUNTRY_TOP_10 |>
  filter(show_title == 'KPop Demon Hunters')|>
  group_by(country_name)|>
  summarise(total_weeks_kdp = max(cumulative_weeks_in_top_10))|>
  arrange(total_weeks_kdp)

# A tibble: 93 × 2
   country_name total_weeks_kdp
   <chr>                  <dbl>
 1 India                     11
 2 Belgium                   13
 3 Iceland                   13
 4 Italy                     13
 5 Japan                     13
 6 Kuwait                    13
 7 Malta                     13
 8 Netherlands               13
 9 Oman                      13
10 Saudi Arabia              13
# ℹ 83 more rows
…
